%YAML 1.1
%TAG !u! tag:unity3d.com,2011:
--- !u!1045 &1
EditorBuildSettings:
  m_ObjectHideFlags: 0
  serializedVersion: 2
  m_Scenes:
  - enabled: 1
    path: Assets/Scenes/Main Menu.unity
    guid: bd9232b61ab044c4d9321c7cd4caaadb
  - enabled: 1
    path: Assets/Scenes/How to Play.unity
    guid: 79dd018cd59392e46b771c821993e4d6
  - enabled: 1
    path: Assets/Scenes/Start Scene.unity
    guid: 9fc0d4010bbf28b4594072e72b8655ab
  - enabled: 1
    path: Assets/Scenes/End Scene.unity
    guid: c0ae07cc2c451d94282ad9749e1a234f
  m_configObjects: {}
